1,    1361.29,   -1402.17,       200,   0.110,   0.110,    0.0
2,    1038.53,    1026.25,       500,  -0.110,   0.110,    0.0
3,   -1253.46,    1139.02,       300,  -0.110,  -0.110,    0.0
4,   -1325.27,   -1421.83,       250,   0.110,  -0.110,    0.0
5,       0.15,        0.0,       0.0,     0.0,     0.0,    0.0
6,      1.132,      1.132,  2002.264,    -2.0,     1.0,  -98.0
 
